{
  "title": "Associated types",
  "cells": [
    {
      "type": "markdown",
      "data": "```swift\nprotocol Robot {\n\tassociatedtype WeaponType\n\t\n\tfunc createWeapon() -> WeaponType\n}\n\nstruct Laser { }\n\nstruct SpaceRobot: Robot {\n\ttypealias WeaponType = Laser\n\t\n\tfunc createWeapon() -> SpaceRobot.WeaponType {\n\t\treturn Laser()\n\t}  \n}\n```"
    }
  ]
}