{
  "created_at" : 1585754326,
  "tags" : [
    "swift",
    "protocols",
    "where-clause"
  ],
  "title" : "Protocol oriented programming",
  "updated_at" : 1585755093,
  "uuid" : "CD57F080-9512-4830-9FB5-BD64EA54AD56"
}