{
  "title": "Timing function",
  "cells": [
    {
      "type": "markdown",
      "data": "```swift \nfunc measure(_ block: () -> Void) -> TimeInterval {\n\tvar info = mach_timebase_info()\n\tguard mach_timebase_info(&info) == KERN_SUCCESS else { return -1 }\n\n\tlet start = mach_absolute_time()\n\t//Block execution to time!\n\tblock()                         \n\tlet end = mach_absolute_time()\n\n\tlet elapsed = end - start\n\n\tlet nanos = elapsed * UInt64(info.numer) / UInt64(info.denom)\n\treturn TimeInterval(nanos) / TimeInterval(NSEC_PER_SEC)\n}\n```"
    }
  ]
}