{
  "title": "Swift ABI Stability",
  "cells": [
    {
      "type": "markdown",
      "data": "Apps running Swift 5 will be guaranteed to work on systems which have the Swift 5 **or greater** standard library installed"
    }
  ]
}