{
  "title": "Flux/redux pattern iOS",
  "cells": [
    {
      "type": "markdown",
      "data": "https://academy.realm.io/posts/benji-encz-unidirectional-data-flow-swift/"
    },
    {
      "type": "markdown",
      "data": "- You can observe state changes via Actions in your analytics code, so that you can keep the analytics separate and not have it in VC's or scattered about your codebase!\n- You can travel back in time through your app states\n- You can reproduce the exact state of an app when it crashed!\n- State is immutable struct\n\nTaming the state structure:\n  - Split into substructures"
    },
    {
      "type": "markdown",
      "data": "https://blog.scottlogic.com/2020/02/06/Exploring-SwiftUI-4-redux-bindable.html"
    },
    {
      "type": "markdown",
      "data": "# Asynchronous callbacks\n\nhttps://medium.com/intive-developers/reswift-in-practice-1512e0f59eb5\n\nOne method used often is to send an `Action`, which starts, for example, a network request, then on completion the request will dispatch another action. This works but means the business logic is now sending user actions, and apparently makes it harder to test. Actions should be reserved for user-triggered events only.\n\nA better approach is to use `Middleware`. Middleware is just a function that is executed by the store before the reducer is hit. It is not allowed to alter the state but can execute asynchronously while changing the current action or dispatching additional actions... tbc"
    },
    {
      "type": "markdown",
      "data": "# Coordinators & Redux\n\nhttps://willowtreeapps.com/ideas/app-coordinators-and-redux-on-ios\n\nViewControllers just iteract with their own domain specific protocol\nCoordinators implement this protocol and convert the user action to Actions"
    }
  ]
}