{
  "title": "Desymbolication",
  "cells": [
    {
      "type": "markdown",
      "data": "https://developer.apple.com/library/archive/technotes/tn2151/_index.html"
    },
    {
      "type": "markdown",
      "data": "To desymbolicate a crash report, you can double click the `xcarchive` file of the app that was released (will contain the dSYM file in the archive). This will add to XCode's Organiser. Then you can just open the crash report.\n\nAlternatively there are desymbolication scripts online."
    }
  ]
}