{
  "title": "Git",
  "cells": [
    {
      "type": "markdown",
      "data": "### Show all commits that are on one branch and not another\n\n`git log --no-merges oldbranch ^newbranch --pretty=oneline`\n \nCan also do this with multiple branches\n\n`git log  --no-merges oldbranch1 oldbranch2 ^newbranch1 ^newbranch2`"
    },
    {
      "type": "markdown",
      "data": "# Stashing \n\n`git stash save \"description\"`\n`git stash list`\n`git stash pop stash@{0}`"
    },
    {
      "type": "markdown",
      "data": "# Troubleshooting\n\n`git fetch` not fetching branches\n- remove and re-add the remote (possible bug in git)"
    },
    {
      "type": "markdown",
      "data": "# Change git comment char from \\#\n\n`git config --global core.commentChar $`"
    }
  ]
}